…
``` r
locations %>% 
  group_by(animal_id, study_site) %>% 
  summarise(start = min(timestamp),
            end = max(timestamp),
            num_points =n())
```

    ## `summarise()` regrouping output by 'animal_id' (override with `.groups` argument)

    ## # A tibble: 260 x 5
    ## # Groups:   animal_id [260]
    ##    animal_id study_site start               end                 num_points
    ##    <chr>     <chr>      <dttm>              <dttm>                   <int>
    ##  1 BP_car022 Burnt Pine 2003-03-27 20:00:00 2008-03-22 20:44:00        102
    ##  2 BP_car023 Burnt Pine 2003-03-27 20:00:00 2003-08-25 17:25:00          8
    ##  3 BP_car032 Burnt Pine 2003-12-12 13:03:29 2005-04-18 00:03:39        577
    ##  4 BP_car043 Burnt Pine 2005-04-04 21:04:02 2006-10-04 18:49:00        235
    ##  5 BP_car100 Burnt Pine 2008-12-20 07:03:37 2010-08-24 19:03:43       1346
    ##  6 BP_car101 Burnt Pine 2008-12-20 07:03:05 2010-06-07 14:03:04       1722
    ##  7 BP_car115 Burnt Pine 2009-02-12 21:11:34 2010-09-22 17:03:30       1448
    ##  8 BP_car144 Burnt Pine 2011-02-21 01:58:20 2011-07-20 17:00:52        512
    ##  9 BP_car145 Burnt Pine 2011-02-21 02:00:09 2013-10-07 02:03:02       3226
    ## 10 GR_C01    Graham     2001-02-21 05:00:00 2003-03-25 05:01:00       2134
    ## # ... with 250 more rows
…
